…
{% highlight text %}
## Error in count(., anio, reunion, sort = TRUE): could not find function "count"
{% endhighlight %}



{% highlight r %}
reuniones
{% endhighlight %}



{% highlight text %}
## # A tibble: 60 x 3
##     anio reunion     n
##    <int> <chr>   <int>
##  1  2009 cuarta      3
##  2  2008 cuarta      2
##  3  2009 quinta      2
##  4  2012 quinta      2
##  5  2017 quinta      2
##  6  2008 quinta      1
##  7  2008 segunda     1
##  8  2008 sexta       1
##  9  2008 tercera     1
## 10  2009 segunda     1
## # ... with 50 more rows
…
